{
  "Acid Slap": {
    "const": "AcidSlap",
    "flags": [],
    "id": "Acid Slap"
  },
  "Aiko arcane archer": {
    "const": "AikoArcaneArcher",
    "flags": [],
    "id": "Aiko arcane archer"
  },
  "Aiko hyper attacks": {
    "const": "AikoHyper",
    "flags": [],
    "id": "Aiko hyper attacks"
  },
  "Aiko lightning arrow": {
    "const": "AikoLightningArrow",
    "flags": [],
    "id": "Aiko lightning arrow"
  },
  "Aiko sex prank": {
    "const": "AikoLustPrank",
    "flags": [],
    "id": "Aiko sex prank"
  },
  "Akbal Flame Debuff": {
    "const": "AkbalFlameDebuff",
    "flags": [],
    "id": "Akbal Flame Debuff"
  },
  "Akbal Speed": {
    "const": "AkbalSpeed",
    "flags": [],
    "id": "Akbal Speed"
  },
  "AkbalFireUsed": {
    "const": "AkbalFireUsed",
    "flags": [],
    "id": "AkbalFireUsed"
  },
  "AkbalHealUsed": {
    "const": "AkbalHealUsed",
    "flags": [],
    "id": "AkbalHealUsed"
  },
  "Amily Venom": {
    "const": "AmilyVenom",
    "flags": [],
    "id": "Amily Venom"
  },
  "Andy's Smoke": {
    "const": "AndysSmoke",
    "flags": [],
    "id": "Andy's Smoke"
  },
  "Anemone Arousal": {
    "const": "AnemoneArousal",
    "flags": [],
    "id": "Anemone Arousal"
  },
  "Anemone Venom": {
    "const": "AnemoneVenom",
    "flags": [],
    "id": "Anemone Venom"
  },
  "Armor Rent": {
    "const": "ArmorRent",
    "flags": [],
    "id": "Armor Rent"
  },
  "Armor temporarily reduced": {
    "const": "VolcanicArmorRed",
    "flags": [],
    "id": "Armor temporarily reduced"
  },
  "Attack Disabled": {
    "const": "AttackDisabled",
    "flags": [],
    "id": "Attack Disabled"
  },
  "Attracted": {
    "const": "Attracted",
    "flags": [],
    "id": "Attracted"
  },
  "BSwordBroken": {
    "const": "BSwordBroken",
    "flags": [],
    "id": "BSwordBroken"
  },
  "BUILT: Milker": {
    "const": "BuiltMilker",
    "flags": [],
    "id": "BUILT: Milker"
  },
  "Backstab": {
    "const": "Backstab",
    "flags": [],
    "id": "Backstab"
  },
  "Basilisk Compulsion": {
    "const": "BasiliskCompulsion",
    "flags": [
      "monster-dispellable"
    ],
    "id": "Basilisk Compulsion"
  },
  "BasiliskSlow": {
    "const": "BasiliskSlow",
    "flags": [],
    "id": "BasiliskSlow"
  },
  "Being boosted by nephila parasites!": {
    "const": "NephilaQueen",
    "flags": [
      "dispellable"
    ],
    "id": "Being boosted by nephila parasites!"
  },
  "Being boosted by your parasites!": {
    "const": "ParasiteQueen",
    "flags": [
      "dispellable"
    ],
    "id": "Being boosted by your parasites!"
  },
  "Berserking": {
    "const": "Berserking",
    "flags": [
      "dispellable"
    ],
    "id": "Berserking"
  },
  "Bimbo Champagne": {
    "const": "BimboChampagne",
    "flags": [],
    "id": "Bimbo Champagne"
  },
  "Birthed": {
    "const": "Birthed",
    "flags": [],
    "id": "Birthed"
  },
  "Birthed Imps": {
    "const": "BirthedImps",
    "flags": [],
    "id": "Birthed Imps"
  },
  "Black Cat Beer": {
    "const": "BlackCatBeer",
    "flags": [],
    "id": "Black Cat Beer"
  },
  "Black Nipples": {
    "const": "BlackNipples",
    "flags": [],
    "id": "Black Nipples"
  },
  "Blind": {
    "const": "Blind",
    "flags": [
      "monster-dispellable"
    ],
    "id": "Blind"
  },
  "BlowjobOn": {
    "const": "BlowjobOn",
    "flags": [],
    "id": "BlowjobOn"
  },
  "Boat Discovery": {
    "const": "BoatDiscovery",
    "flags": [],
    "id": "Boat Discovery"
  },
  "Bonus aCapacity": {
    "const": "BonusACapacity",
    "flags": [],
    "id": "Bonus aCapacity"
  },
  "Bonus vCapacity": {
    "const": "BonusVCapacity",
    "flags": [],
    "id": "Bonus vCapacity"
  },
  "Bottled Milk": {
    "const": "BottledMilk",
    "flags": [],
    "id": "Bottled Milk"
  },
  "Bound": {
    "const": "Bound",
    "flags": [],
    "id": "Bound"
  },
  "Bow Cooldown": {
    "const": "BowCooldown",
    "flags": [],
    "id": "Bow Cooldown"
  },
  "Bow Disabled": {
    "const": "BowDisabled",
    "flags": [],
    "id": "Bow Disabled"
  },
  "Breasts Milked": {
    "const": "BreastsMilked",
    "flags": [],
    "id": "Breasts Milked"
  },
  "Brutal Blows": {
    "const": "BrutalBlows",
    "flags": [],
    "id": "Brutal Blows"
  },
  "Burp Changed": {
    "const": "BurpChanged",
    "flags": [],
    "id": "Burp Changed"
  },
  "ButtStretched": {
    "const": "ButtStretched",
    "flags": [],
    "id": "ButtStretched"
  },
  "Called Shot": {
    "const": "CalledShot",
    "flags": [],
    "id": "Called Shot"
  },
  "Camp Anemone Trigger": {
    "const": "CampAnemoneTrigger",
    "flags": [],
    "id": "Camp Anemone Trigger"
  },
  "Camp Marble": {
    "const": "CampMarble",
    "flags": [],
    "id": "Camp Marble"
  },
  "Camp Rathazul": {
    "const": "CampRathazul",
    "flags": [],
    "id": "Camp Rathazul"
  },
  "Charge Weapon": {
    "const": "ChargeWeapon",
    "flags": [
      "dispellable"
    ],
    "id": "Charge Weapon"
  },
  "Charged": {
    "const": "Charged",
    "flags": [],
    "id": "Charged"
  },
  "Chokeslam": {
    "const": "Chokeslam",
    "flags": [],
    "id": "Chokeslam"
  },
  "CirceScimitarBuff": {
    "const": "CirceSummonedScimitar",
    "flags": [],
    "id": "CirceScimitarBuff"
  },
  "Clara Combat Rounds": {
    "const": "ClaraCombatRounds",
    "flags": [],
    "id": "Clara Combat Rounds"
  },
  "Clara Fought In Camp": {
    "const": "ClaraFoughtInCamp",
    "flags": [],
    "id": "Clara Fought In Camp"
  },
  "Climbed": {
    "const": "Climbed",
    "flags": [],
    "id": "Climbed"
  },
  "Cock Pumped": {
    "const": "CockPumped",
    "flags": [],
    "id": "Cock Pumped"
  },
  "Combat Inte Buff": {
    "const": "GenericCombatInteBuff",
    "flags": [],
    "id": "Combat Inte Buff"
  },
  "Combat Spe Buff": {
    "const": "GenericCombatSpeBuff",
    "flags": [],
    "id": "Combat Spe Buff"
  },
  "Combat Str Buff": {
    "const": "GenericCombatStrBuff",
    "flags": [],
    "id": "Combat Str Buff"
  },
  "Combat Tou Buff": {
    "const": "GenericCombatTouBuff",
    "flags": [],
    "id": "Combat Tou Buff"
  },
  "Concentration": {
    "const": "Concentration",
    "flags": [],
    "id": "Concentration"
  },
  "Confusion": {
    "const": "Confusion",
    "flags": [],
    "id": "Confusion"
  },
  "Constricted": {
    "const": "Constricted",
    "flags": [
      "monster-dispellable"
    ],
    "id": "Constricted"
  },
  "Contraceptives": {
    "const": "Contraceptives",
    "flags": [],
    "id": "Contraceptives"
  },
  "Coon Whip": {
    "const": "CoonWhip",
    "flags": [
      "monster-dispellable"
    ],
    "id": "Coon Whip"
  },
  "Corrupted Witch headlock": {
    "const": "CorrWitchBind",
    "flags": [],
    "id": "Corrupted Witch headlock"
  },
  "Counter": {
    "const": "Counter",
    "flags": [],
    "id": "Counter"
  },
  "CuntStretched": {
    "const": "CuntStretched",
    "flags": [],
    "id": "CuntStretched"
  },
  "Deafening Buzz": {
    "const": "Deafeningbuzz",
    "flags": [],
    "id": "Deafening Buzz"
  },
  "Defense: Canopy": {
    "const": "DefenseCanopy",
    "flags": [],
    "id": "Defense: Canopy"
  },
  "DemonSeed": {
    "const": "DemonSeed",
    "flags": [],
    "id": "DemonSeed"
  },
  "Disarmed": {
    "const": "Disarmed",
    "flags": [],
    "id": "Disarmed"
  },
  "DivineWind": {
    "const": "DivineWind",
    "flags": [
      "dispellable"
    ],
    "id": "DivineWind"
  },
  "Dodged Attack": {
    "const": "DodgedAttack",
    "flags": [],
    "id": "Dodged Attack"
  },
  "Dragon Breath Boost": {
    "const": "DragonBreathBoost",
    "flags": [],
    "id": "Dragon Breath Boost"
  },
  "Dragon Breath Cooldown": {
    "const": "DragonBreathCooldown",
    "flags": [],
    "id": "Dragon Breath Cooldown"
  },
  "Drider Incubus Venom": {
    "const": "DriderIncubusVenom",
    "flags": [],
    "id": "Drider Incubus Venom"
  },
  "Drider Kiss": {
    "const": "DriderKiss",
    "flags": [],
    "id": "Drider Kiss"
  },
  "Drunk": {
    "const": "Drunk",
    "flags": [],
    "id": "Drunk"
  },
  "DungeonShutDown": {
    "const": "DungeonShutDown",
    "flags": [],
    "id": "DungeonShutDown"
  },
  "Earthshield": {
    "const": "Earthshield",
    "flags": [],
    "id": "Earthshield"
  },
  "Edryn": {
    "const": "Edryn",
    "flags": [],
    "id": "Edryn"
  },
  "Ember Napping": {
    "const": "EmberNapping",
    "flags": [],
    "id": "Ember Napping"
  },
  "Ember's Milk": {
    "const": "EmberMilk",
    "flags": [],
    "id": "Ember's Milk"
  },
  "Emphatic Agony": {
    "const": "EmpathicAgony",
    "flags": [],
    "id": "Emphatic Agony"
  },
  "Ever Raped Jojo": {
    "const": "EverRapedJojo",
    "flags": [],
    "id": "Ever Raped Jojo"
  },
  "Exgartuan": {
    "const": "Exgartuan",
    "flags": [],
    "id": "Exgartuan"
  },
  "Exhaustion": {
    "const": "GlobalFatigue",
    "flags": [],
    "id": "Exhaustion"
  },
  "Exponential spell power, exponentially less HP": {
    "const": "Apotheosis",
    "flags": [],
    "id": "Exponential spell power, exponentially less HP"
  },
  "Extra dodge due to wait": {
    "const": "WaitReadiness",
    "flags": [],
    "id": "Extra dodge due to wait"
  },
  "FactoryIncubusDefeated": {
    "const": "FactoryIncubusDefeated",
    "flags": [],
    "id": "FactoryIncubusDefeated"
  },
  "FactoryOmnibusDefeated": {
    "const": "FactoryOmnibusDefeated",
    "flags": [],
    "id": "FactoryOmnibusDefeated"
  },
  "FactoryOverload": {
    "const": "FactoryOverload",
    "flags": [],
    "id": "FactoryOverload"
  },
  "FactorySuccubusDefeated": {
    "const": "FactorySuccubusDefeated",
    "flags": [],
    "id": "FactorySuccubusDefeated"
  },
  "Faerie Fem Fuck": {
    "const": "FaerieFemFuck",
    "flags": [],
    "id": "Faerie Fem Fuck"
  },
  "Faerie Fucked": {
    "const": "FaerieFucked",
    "flags": [],
    "id": "Faerie Fucked"
  },
  "Fear": {
    "const": "Fear",
    "flags": [
      "monster-dispellable"
    ],
    "id": "Fear"
  },
  "Feeder": {
    "const": "Feeder",
    "flags": [],
    "id": "Feeder"
  },
  "Fertilized": {
    "const": "Fertilized",
    "flags": [],
    "id": "Fertilized"
  },
  "FirstAttack": {
    "const": "FirstAttack",
    "flags": [],
    "id": "FirstAttack"
  },
  "Found Factory": {
    "const": "FoundFactory",
    "flags": [],
    "id": "Found Factory"
  },
  "Frog Poison": {
    "const": "FrogPoison",
    "flags": [],
    "id": "Frog Poison"
  },
  "FuckedMarble": {
    "const": "FuckedMarble",
    "flags": [],
    "id": "FuckedMarble"
  },
  "Fullness": {
    "const": "Fullness",
    "flags": [],
    "id": "Fullness"
  },
  "GOOJOB": {
    "const": "Goojob",
    "flags": [],
    "id": "GOOJOB"
  },
  "Generic Run Disabled": {
    "const": "GenericRunDisabled",
    "flags": [],
    "id": "Generic Run Disabled"
  },
  "Geode Knuckle": {
    "const": "TFGeodeKnuckle",
    "flags": [],
    "id": "Geode Knuckle"
  },
  "Giant Boulder": {
    "const": "GiantBoulder",
    "flags": [],
    "id": "Giant Boulder"
  },
  "Giant Grabbed": {
    "const": "GiantGrabbed",
    "flags": [],
    "id": "Giant Grabbed"
  },
  "GiantStrLoss": {
    "const": "GiantStrLoss",
    "flags": [],
    "id": "GiantStrLoss"
  },
  "Gigafire": {
    "const": "Gigafire",
    "flags": [],
    "id": "Gigafire"
  },
  "Gnoll Spear": {
    "const": "GnollSpear",
    "flags": [],
    "id": "Gnoll Spear"
  },
  "Golem is pissed off.": {
    "const": "VolcanicFrenzy",
    "flags": [],
    "id": "Golem is pissed off."
  },
  "Golem stuck its fist in the ground.": {
    "const": "VolcanicFistProblem",
    "flags": [],
    "id": "Golem stuck its fist in the ground."
  },
  "GooArmorBind": {
    "const": "GooArmorBind",
    "flags": [],
    "id": "GooArmorBind"
  },
  "GooArmorSilence": {
    "const": "GooArmorSilence",
    "flags": [],
    "id": "GooArmorSilence"
  },
  "GooBind": {
    "const": "GooBind",
    "flags": [],
    "id": "GooBind"
  },
  "Gotta Open Gift": {
    "const": "GottaOpenGift",
    "flags": [],
    "id": "Gotta Open Gift"
  },
  "Grappled": {
    "const": "Grappled",
    "flags": [],
    "id": "Grappled"
  },
  "Grappling": {
    "const": "Grappling",
    "flags": [],
    "id": "Grappling"
  },
  "Groundpound": {
    "const": "Groundpound",
    "flags": [],
    "id": "Groundpound"
  },
  "Hangover": {
    "const": "Hangover",
    "flags": [],
    "id": "Hangover"
  },
  "HarpyBind": {
    "const": "HarpyBind",
    "flags": [],
    "id": "HarpyBind"
  },
  "Holli Burning": {
    "const": "HolliBurning",
    "flags": [],
    "id": "Holli Burning"
  },
  "Holli Constrict": {
    "const": "HolliConstrict",
    "flags": [],
    "id": "Holli Constrict"
  },
  "Illusion": {
    "const": "Illusion",
    "flags": [
      "monster-dispellable"
    ],
    "id": "Illusion"
  },
  "Immolation Spell": {
    "const": "ImmolationSpell",
    "flags": [],
    "id": "Immolation Spell"
  },
  "Imp GangBang": {
    "const": "ImpGangBang",
    "flags": [],
    "id": "Imp GangBang"
  },
  "ImpSkip": {
    "const": "ImpSkip",
    "flags": [],
    "id": "ImpSkip"
  },
  "ImpUber": {
    "const": "ImpUber",
    "flags": [],
    "id": "ImpUber"
  },
  "IncubusBribed": {
    "const": "IncubusBribed",
    "flags": [],
    "id": "IncubusBribed"
  },
  "Inflame": {
    "const": "TFInflame",
    "flags": [
      "dispellable"
    ],
    "id": "Inflame"
  },
  "Ironflesh": {
    "const": "Ironflesh",
    "flags": [
      "dispellable"
    ],
    "id": "Ironflesh"
  },
  "Isabella Stunned": {
    "const": "IsabellaStunned",
    "flags": [],
    "id": "Isabella Stunned"
  },
  "Izma Bleed": {
    "const": "IzmaBleed",
    "flags": [
      "monster-dispellable"
    ],
    "id": "Izma Bleed"
  },
  "IzmaBlowing": {
    "const": "IzmaBlowing",
    "flags": [],
    "id": "IzmaBlowing"
  },
  "IzumiPipeSmoke": {
    "const": "IzumisPipeSmoke",
    "flags": [],
    "id": "IzumiPipeSmoke"
  },
  "JC Lust Level": {
    "const": "JCLustLevel",
    "flags": [],
    "id": "JC Lust Level"
  },
  "JerkingIzma": {
    "const": "JerkingIzma",
    "flags": [],
    "id": "JerkingIzma"
  },
  "Jizzpants": {
    "const": "Jizzpants",
    "flags": [],
    "id": "Jizzpants"
  },
  "Jojo Is Assisting": {
    "const": "JojoIsAssisting",
    "flags": [],
    "id": "Jojo Is Assisting"
  },
  "Jojo Meditation Count": {
    "const": "JojoMeditationCount",
    "flags": [],
    "id": "Jojo Meditation Count"
  },
  "Jojo Pyre": {
    "const": "JojoPyre",
    "flags": [],
    "id": "Jojo Pyre"
  },
  "JojoNightWatch": {
    "const": "JojoNightWatch",
    "flags": [],
    "id": "JojoNightWatch"
  },
  "JojoTFOffer": {
    "const": "JojoTFOffer",
    "flags": [],
    "id": "JojoTFOffer"
  },
  "Kelt": {
    "const": "Kelt",
    "flags": [],
    "id": "Kelt"
  },
  "Kelt Bad End Warning": {
    "const": "KeltBadEndWarning",
    "flags": [],
    "id": "Kelt Bad End Warning"
  },
  "KeltBJ": {
    "const": "KeltBJ",
    "flags": [],
    "id": "KeltBJ"
  },
  "KeltOff": {
    "const": "KeltOff",
    "flags": [],
    "id": "KeltOff"
  },
  "Kiss of Death": {
    "const": "KissOfDeath",
    "flags": [],
    "id": "Kiss of Death"
  },
  "Kitsune Fight": {
    "const": "KitsuneFight",
    "flags": [],
    "id": "Kitsune Fight"
  },
  "KitsuneVision": {
    "const": "kitsuneVision",
    "flags": [],
    "id": "KitsuneVision"
  },
  "Knocked Back": {
    "const": "KnockedBack",
    "flags": [],
    "id": "Knocked Back"
  },
  "Knows Arouse": {
    "const": "KnowsArouse",
    "flags": [
      "spell",
      "spell-black"
    ],
    "id": "Knows Arouse"
  },
  "Knows Blackfire": {
    "const": "KnowsBlackfire",
    "flags": [
      "spell",
      "spell-black"
    ],
    "id": "Knows Blackfire"
  },
  "Knows Blind": {
    "const": "KnowsBlind",
    "flags": [
      "spell",
      "spell-white"
    ],
    "id": "Knows Blind"
  },
  "Knows Charge": {
    "const": "KnowsCharge",
    "flags": [
      "spell",
      "spell-white"
    ],
    "id": "Knows Charge"
  },
  "Knows Circe's Summoned Scimitars": {
    "const": "KnowsCSS",
    "flags": [
      "spell",
      "spell-other"
    ],
    "id": "Knows Circe's Summoned Scimitars"
  },
  "Knows Divine Wind": {
    "const": "KnowsDivineWind",
    "flags": [
      "spell",
      "spell-other"
    ],
    "id": "Knows Divine Wind"
  },
  "Knows Heal": {
    "const": "KnowsHeal",
    "flags": [
      "spell",
      "spell-black"
    ],
    "id": "Knows Heal"
  },
  "Knows Leech": {
    "const": "KnowsLeech",
    "flags": [
      "spell",
      "spell-gray"
    ],
    "id": "Knows Leech"
  },
  "Knows Might": {
    "const": "KnowsMight",
    "flags": [
      "spell",
      "spell-black"
    ],
    "id": "Knows Might"
  },
  "Knows Soulburst": {
    "const": "KnowsSoulburst",
    "flags": [
      "spell",
      "spell-other"
    ],
    "id": "Knows Soulburst"
  },
  "Knows TK Blast": {
    "const": "KnowsTKBlast",
    "flags": [
      "spell",
      "spell-gray"
    ],
    "id": "Knows TK Blast"
  },
  "Knows Whitefire": {
    "const": "KnowsWhitefire",
    "flags": [
      "spell",
      "spell-white"
    ],
    "id": "Knows Whitefire"
  },
  "Knows Wither": {
    "const": "KnowsWither",
    "flags": [
      "spell",
      "spell-other"
    ],
    "id": "Knows Wither"
  },
  "Lactation Endurance": {
    "const": "LactationEndurance",
    "flags": [],
    "id": "Lactation Endurance"
  },
  "Lactation Reduc0": {
    "const": "LactationReduc0",
    "flags": [],
    "id": "Lactation Reduc0"
  },
  "Lactation Reduc1": {
    "const": "LactationReduc1",
    "flags": [],
    "id": "Lactation Reduc1"
  },
  "Lactation Reduc2": {
    "const": "LactationReduc2",
    "flags": [],
    "id": "Lactation Reduc2"
  },
  "Lactation Reduc3": {
    "const": "LactationReduc3",
    "flags": [],
    "id": "Lactation Reduc3"
  },
  "Lactation Reduction": {
    "const": "LactationReduction",
    "flags": [],
    "id": "Lactation Reduction"
  },
  "LeechBuff": {
    "const": "Leeching",
    "flags": [
      "dispellable"
    ],
    "id": "LeechBuff"
  },
  "Lethices Rape Tentacles": {
    "const": "LethicesRapeTentacles",
    "flags": [],
    "id": "Lethices Rape Tentacles"
  },
  "Lizan Blowpipe": {
    "const": "LizanBlowpipe",
    "flags": [],
    "id": "Lizan Blowpipe"
  },
  "Lust Aura": {
    "const": "LustAura",
    "flags": [],
    "id": "Lust Aura"
  },
  "Lust Stick Applied": {
    "const": "LustStickApplied",
    "flags": [],
    "id": "Lust Stick Applied"
  },
  "LustStick": {
    "const": "LustStick",
    "flags": [
      "monster-dispellable"
    ],
    "id": "LustStick"
  },
  "Lustserking": {
    "const": "Lustserking",
    "flags": [
      "dispellable"
    ],
    "id": "Lustserking"
  },
  "Luststick": {
    "const": "Luststick",
    "flags": [],
    "id": "Luststick"
  },
  "LustyTongue": {
    "const": "LustyTongue",
    "flags": [],
    "id": "LustyTongue"
  },
  "Malon Visited Post Addiction": {
    "const": "MalonVisitedPostAddiction",
    "flags": [],
    "id": "Malon Visited Post Addiction"
  },
  "Marae Complete": {
    "const": "MaraeComplete",
    "flags": [],
    "id": "Marae Complete"
  },
  "Marae's Lethicite": {
    "const": "MaraesLethicite",
    "flags": [],
    "id": "Marae's Lethicite"
  },
  "Marae's Quest Start": {
    "const": "MaraesQuestStart",
    "flags": [],
    "id": "Marae's Quest Start"
  },
  "Marble": {
    "const": "Marble",
    "flags": [],
    "id": "Marble"
  },
  "Marble Rape Attempted": {
    "const": "MarbleRapeAttempted",
    "flags": [],
    "id": "Marble Rape Attempted"
  },
  "MarbleHasItem": {
    "const": "MarbleHasItem",
    "flags": [],
    "id": "MarbleHasItem"
  },
  "MarbleItemCooldown": {
    "const": "MarbleItemCooldown",
    "flags": [],
    "id": "MarbleItemCooldown"
  },
  "MarbleSpecials": {
    "const": "MarbleSpecials",
    "flags": [],
    "id": "MarbleSpecials"
  },
  "MarbleWithdrawl": {
    "const": "MarbleWithdrawl",
    "flags": [],
    "id": "MarbleWithdrawl"
  },
  "Marbles Milk": {
    "const": "MarblesMilk",
    "flags": [],
    "id": "Marbles Milk"
  },
  "MeanToNaga": {
    "const": "MeanToNaga",
    "flags": [],
    "id": "MeanToNaga"
  },
  "Meditated": {
    "const": "Meditated",
    "flags": [],
    "id": "Meditated"
  },
  "Met Corrupt Marae": {
    "const": "MetCorruptMarae",
    "flags": [],
    "id": "Met Corrupt Marae"
  },
  "Met Marae": {
    "const": "MetMarae",
    "flags": [],
    "id": "Met Marae"
  },
  "Met Whitney": {
    "const": "MetWhitney",
    "flags": [],
    "id": "Met Whitney"
  },
  "Might": {
    "const": "Might",
    "flags": [
      "dispellable"
    ],
    "id": "Might"
  },
  "Milked": {
    "const": "Milked",
    "flags": [],
    "id": "Milked"
  },
  "Milky Urta": {
    "const": "MilkyUrta",
    "flags": [],
    "id": "Milky Urta"
  },
  "Mino + Cowgirl": {
    "const": "MinoPlusCowgirl",
    "flags": [],
    "id": "Mino + Cowgirl"
  },
  "Mino Milk": {
    "const": "MinoMilk",
    "flags": [],
    "id": "Mino Milk"
  },
  "Minotaur Entangled": {
    "const": "MinotaurEntangled",
    "flags": [],
    "id": "Minotaur Entangled"
  },
  "Minotaur King Musk": {
    "const": "MinotaurKingMusk",
    "flags": [],
    "id": "Minotaur King Musk"
  },
  "Minotaur Kings Touch": {
    "const": "MinotaurKingsTouch",
    "flags": [],
    "id": "Minotaur Kings Touch"
  },
  "Mirrored Attack": {
    "const": "MirroredAttack",
    "flags": [],
    "id": "Mirrored Attack"
  },
  "Molten Plate": {
    "const": "TFMoltenPlate",
    "flags": [
      "dispellable"
    ],
    "id": "Molten Plate"
  },
  "Mosquito Numb": {
    "const": "MosquitoNumb",
    "flags": [],
    "id": "Mosquito Numb"
  },
  "Moth Pheromones": {
    "const": "MothDose",
    "flags": [],
    "id": "Moth Pheromones"
  },
  "Naga": {
    "const": "Naga",
    "flags": [],
    "id": "Naga"
  },
  "Naga Bind": {
    "const": "NagaBind",
    "flags": [],
    "id": "Naga Bind"
  },
  "Naga Bite": {
    "const": "NagaBite",
    "flags": [],
    "id": "Naga Bite"
  },
  "Naga Sentinel Venom": {
    "const": "NagaSentVenom",
    "flags": [],
    "id": "Naga Sentinel Venom"
  },
  "Naga Venom": {
    "const": "NagaVenom",
    "flags": [
      "monster-dispellable"
    ],
    "id": "Naga Venom"
  },
  "NakedOn": {
    "const": "NakedOn",
    "flags": [],
    "id": "NakedOn"
  },
  "Nephila Compulsion": {
    "const": "NephilaCompulsion",
    "flags": [],
    "id": "Nephila Compulsion"
  },
  "NephilaSlow": {
    "const": "NephilaSlow",
    "flags": [],
    "id": "NephilaSlow"
  },
  "No Loot": {
    "const": "NoLoot",
    "flags": [],
    "id": "No Loot"
  },
  "No More Marble": {
    "const": "NoMoreMarble",
    "flags": [],
    "id": "No More Marble"
  },
  "No physical": {
    "const": "SentinelPhysicalDisabled",
    "flags": [],
    "id": "No physical"
  },
  "No tease": {
    "const": "SentinelNoTease",
    "flags": [],
    "id": "No tease"
  },
  "NoFlee": {
    "const": "NoFlee",
    "flags": [],
    "id": "NoFlee"
  },
  "On Fire": {
    "const": "OnFire",
    "flags": [
      "monster-dispellable"
    ],
    "id": "On Fire"
  },
  "Oswald": {
    "const": "Oswald",
    "flags": [],
    "id": "Oswald"
  },
  "Overhealing": {
    "const": "Overhealing",
    "flags": [
      "dispellable"
    ],
    "id": "Overhealing"
  },
  "PCTailTangle": {
    "const": "PCTailTangle",
    "flags": [],
    "id": "PCTailTangle"
  },
  "ParasiteEel needs specific cum": {
    "const": "ParasiteEelNeedCum",
    "flags": [],
    "id": "ParasiteEel needs specific cum"
  },
  "ParasiteEel ready to reproduce": {
    "const": "ParasiteEelReproduction",
    "flags": [],
    "id": "ParasiteEel ready to reproduce"
  },
  "ParasiteNephila needs specific cum": {
    "const": "ParasiteNephilaNeedCum",
    "flags": [],
    "id": "ParasiteNephila needs specific cum"
  },
  "ParasiteNephila ready to reproduce": {
    "const": "ParasiteNephilaReproduction",
    "flags": [],
    "id": "ParasiteNephila ready to reproduce"
  },
  "Peach Loot Loss": {
    "const": "PeachLootLoss",
    "flags": [],
    "id": "Peach Loot Loss"
  },
  "Permanent Flying": {
    "const": "PermaFlyStatus",
    "flags": [],
    "id": "Permanent Flying"
  },
  "Phoenix Commander issued order": {
    "const": "PhoenixOrder",
    "flags": [],
    "id": "Phoenix Commander issued order"
  },
  "PhoukaWhiskeyAffect": {
    "const": "PhoukaWhiskeyAffect",
    "flags": [],
    "id": "PhoukaWhiskeyAffect"
  },
  "PhyllaFight": {
    "const": "PhyllaFight",
    "flags": [],
    "id": "PhyllaFight"
  },
  "Physical Disabled": {
    "const": "PhysicalDisabled",
    "flags": [],
    "id": "Physical Disabled"
  },
  "Pigbys Hands": {
    "const": "PigbysHands",
    "flags": [],
    "id": "Pigbys Hands"
  },
  "Plate": {
    "const": "TFPlate",
    "flags": [
      "dispellable"
    ],
    "id": "Plate"
  },
  "Player doesn't exist": {
    "const": "Nothingness",
    "flags": [],
    "id": "Player doesn't exist"
  },
  "Player gained a crumb of cosmic truth": {
    "const": "Revelation",
    "flags": [],
    "id": "Player gained a crumb of cosmic truth"
  },
  "Player has been remade": {
    "const": "Refashioned",
    "flags": [],
    "id": "Player has been remade"
  },
  "Player is marked, less armor": {
    "const": "Marked",
    "flags": [],
    "id": "Player is marked, less armor"
  },
  "Poison": {
    "const": "Poison",
    "flags": [],
    "id": "Poison"
  },
  "Post Akbal Submission": {
    "const": "PostAkbalSubmission",
    "flags": [],
    "id": "Post Akbal Submission"
  },
  "Post Anemone Beatdown": {
    "const": "PostAnemoneBeatdown",
    "flags": [],
    "id": "Post Anemone Beatdown"
  },
  "PureCampJojo": {
    "const": "PureCampJojo",
    "flags": [],
    "id": "PureCampJojo"
  },
  "PurpleHaze": {
    "const": "PurpleHaze",
    "flags": [],
    "id": "PurpleHaze"
  },
  "Quake": {
    "const": "TFQuake",
    "flags": [],
    "id": "Quake"
  },
  "QueenBind": {
    "const": "QueenBind",
    "flags": [],
    "id": "QueenBind"
  },
  "Removed Armor": {
    "const": "RemovedArmor",
    "flags": [],
    "id": "Removed Armor"
  },
  "RetributionBuff": {
    "const": "Retribution",
    "flags": [],
    "id": "RetributionBuff"
  },
  "Revengeance": {
    "const": "CounterAB",
    "flags": [],
    "id": "Revengeance"
  },
  "Round": {
    "const": "Round",
    "flags": [],
    "id": "Round"
  },
  "Run Disabled": {
    "const": "RunDisabled",
    "flags": [],
    "id": "Run Disabled"
  },
  "Sap Speed": {
    "const": "GardenerSapSpeed",
    "flags": [],
    "id": "Sap Speed"
  },
  "Scorch": {
    "const": "TFScorch",
    "flags": [],
    "id": "Scorch"
  },
  "Scorpion Blind": {
    "const": "ScorpBlind",
    "flags": [],
    "id": "Scorpion Blind"
  },
  "Scorpion Grapple": {
    "const": "ScorpGrabbed",
    "flags": [],
    "id": "Scorpion Grapple"
  },
  "Scorpion Venom": {
    "const": "ScorpVenom",
    "flags": [],
    "id": "Scorpion Venom"
  },
  "Sealed": {
    "const": "Sealed",
    "flags": [],
    "id": "Sealed"
  },
  "Sever Tendons": {
    "const": "SeverTendons",
    "flags": [],
    "id": "Sever Tendons"
  },
  "Shark-Girl": {
    "const": "SharkGirl",
    "flags": [],
    "id": "Shark-Girl"
  },
  "Sheila Oil": {
    "const": "SheilaOil",
    "flags": [],
    "id": "Sheila Oil"
  },
  "Shell": {
    "const": "Shell",
    "flags": [],
    "id": "Shell"
  },
  "Shielding": {
    "const": "Shielding",
    "flags": [],
    "id": "Shielding"
  },
  "Shielding Spell": {
    "const": "ShieldingSpell",
    "flags": [],
    "id": "Shielding Spell"
  },
  "Shower Dot Effect": {
    "const": "ShowerDotEffect",
    "flags": [],
    "id": "Shower Dot Effect"
  },
  "Siren Song": {
    "const": "SirenSong",
    "flags": [],
    "id": "Siren Song"
  },
  "Slime Craving": {
    "const": "SlimeCraving",
    "flags": [],
    "id": "Slime Craving"
  },
  "Slime Craving Feed": {
    "const": "SlimeCravingFeed",
    "flags": [],
    "id": "Slime Craving Feed"
  },
  "Slime Craving Output": {
    "const": "SlimeCravingOutput",
    "flags": [],
    "id": "Slime Craving Output"
  },
  "Smell that musk man": {
    "const": "ParasiteSlugMusk",
    "flags": [],
    "id": "Smell that musk man"
  },
  "Soulburst": {
    "const": "Soulburst",
    "flags": [],
    "id": "Soulburst"
  },
  "Stimulating Aura": {
    "const": "StimulatingAura",
    "flags": [],
    "id": "Stimulating Aura"
  },
  "Stone Lust": {
    "const": "StoneLust",
    "flags": [],
    "id": "Stone Lust"
  },
  "Stone Shell": {
    "const": "TFShell",
    "flags": [
      "dispellable"
    ],
    "id": "Stone Shell"
  },
  "Stun Cooldown": {
    "const": "StunCooldown",
    "flags": [],
    "id": "Stun Cooldown"
  },
  "Stunned": {
    "const": "Stunned",
    "flags": [
      "monster-dispellable"
    ],
    "id": "Stunned"
  },
  "SuccubiFirst": {
    "const": "SuccubiFirst",
    "flags": [],
    "id": "SuccubiFirst"
  },
  "Super silenced": {
    "const": "SentinelOmniSilence",
    "flags": [],
    "id": "Super silenced"
  },
  "Supernova Charging": {
    "const": "TFSupercharging",
    "flags": [],
    "id": "Supernova Charging"
  },
  "TF2": {
    "const": "TF2",
    "flags": [],
    "id": "TF2"
  },
  "Tail Whip": {
    "const": "TailWhip",
    "flags": [],
    "id": "Tail Whip"
  },
  "Tainted Mind": {
    "const": "TaintedMind",
    "flags": [],
    "id": "Tainted Mind"
  },
  "TakenGro+": {
    "const": "TakenGroPlus",
    "flags": [],
    "id": "TakenGro+"
  },
  "TakenLactaid": {
    "const": "TakenLactaid",
    "flags": [],
    "id": "TakenLactaid"
  },
  "Tamani": {
    "const": "Tamani",
    "flags": [],
    "id": "Tamani"
  },
  "Tamani Female Encounter": {
    "const": "TamaniFemaleEncounter",
    "flags": [],
    "id": "Tamani Female Encounter"
  },
  "TargetMarked": {
    "const": "TargetMarkedBuff",
    "flags": [
      "dispellable"
    ],
    "id": "TargetMarked"
  },
  "Targetguarded": {
    "const": "GuardAB",
    "flags": [],
    "id": "Targetguarded"
  },
  "Tel'Adre": {
    "const": "TelAdre",
    "flags": [],
    "id": "Tel'Adre"
  },
  "TellyVisedStatus": {
    "const": "TellyVised",
    "flags": [],
    "id": "TellyVisedStatus"
  },
  "Temporary Heat": {
    "const": "TemporaryHeat",
    "flags": [],
    "id": "Temporary Heat"
  },
  "TensionReleased": {
    "const": "TensionReleased",
    "flags": [],
    "id": "TensionReleased"
  },
  "Tentacle Jojo": {
    "const": "TentacleJojo",
    "flags": [],
    "id": "Tentacle Jojo"
  },
  "TentacleBadEndCounter": {
    "const": "TentacleBadEndCounter",
    "flags": [],
    "id": "TentacleBadEndCounter"
  },
  "TentacleBind": {
    "const": "TentacleBind",
    "flags": [],
    "id": "TentacleBind"
  },
  "TentacleCoolDown": {
    "const": "TentacleCoolDown",
    "flags": [],
    "id": "TentacleCoolDown"
  },
  "Tentagrapple Cooldown": {
    "const": "TentagrappleCooldown",
    "flags": [],
    "id": "Tentagrapple Cooldown"
  },
  "Tentagrappled": {
    "const": "Tentagrappled",
    "flags": [],
    "id": "Tentagrappled"
  },
  "Terrestrial Core": {
    "const": "TFTerraCore",
    "flags": [],
    "id": "Terrestrial Core"
  },
  "Terrestrial Star": {
    "const": "TFTerraStar",
    "flags": [],
    "id": "Terrestrial Star"
  },
  "Terrestrial Star Cooldown": {
    "const": "TFTerraStarCooldown",
    "flags": [],
    "id": "Terrestrial Star Cooldown"
  },
  "Terrestrial Star Debuff": {
    "const": "TFTerraStarWeaken",
    "flags": [
      "monster-dispellable"
    ],
    "id": "Terrestrial Star Debuff"
  },
  "Test your resolve. A buff, or a debuff.": {
    "const": "Resolve",
    "flags": [
      "dispellable"
    ],
    "id": "Test your resolve. A buff, or a debuff."
  },
  "Throat Punch": {
    "const": "ThroatPunch",
    "flags": [],
    "id": "Throat Punch"
  },
  "Time Frozen": {
    "const": "TimeFrozen",
    "flags": [],
    "id": "Time Frozen"
  },
  "Time is warped": {
    "const": "TimeWarp",
    "flags": [],
    "id": "Time is warped"
  },
  "Timer": {
    "const": "Timer",
    "flags": [],
    "id": "Timer"
  },
  "TimesBashed": {
    "const": "TimesBashed",
    "flags": [],
    "id": "TimesBashed"
  },
  "Titsmother": {
    "const": "Titsmother",
    "flags": [],
    "id": "Titsmother"
  },
  "Took Blessed Sword": {
    "const": "TookBlessedSword",
    "flags": [],
    "id": "Took Blessed Sword"
  },
  "TrackingNegative": {
    "const": "TrackingNegative",
    "flags": [],
    "id": "TrackingNegative"
  },
  "TrackingPositive": {
    "const": "TrackingPositive",
    "flags": [],
    "id": "TrackingPositive"
  },
  "TranquilBlessing": {
    "const": "TempleBlessing",
    "flags": [],
    "id": "TranquilBlessing"
  },
  "Transformation stuff": {
    "const": "TransformationDoses",
    "flags": [],
    "id": "Transformation stuff"
  },
  "Twu Wuv": {
    "const": "TwuWuv",
    "flags": [],
    "id": "Twu Wuv"
  },
  "UBERWEB": {
    "const": "UBERWEB",
    "flags": [],
    "id": "UBERWEB"
  },
  "Uber": {
    "const": "Uber",
    "flags": [],
    "id": "Uber"
  },
  "Uma's Massage": {
    "const": "UmasMassage",
    "flags": [],
    "id": "Uma's Massage"
  },
  "Uniball": {
    "const": "Uniball",
    "flags": [],
    "id": "Uniball"
  },
  "Urta Second Winded": {
    "const": "UrtaSecondWinded",
    "flags": [],
    "id": "Urta Second Winded"
  },
  "UsedTitsmother": {
    "const": "UsedTitsmother",
    "flags": [],
    "id": "UsedTitsmother"
  },
  "Vapula": {
    "const": "Vapula",
    "flags": [],
    "id": "Vapula"
  },
  "Victoria": {
    "const": "Victoria",
    "flags": [],
    "id": "Victoria"
  },
  "Vine Heal Used": {
    "const": "VineHealUsed",
    "flags": [],
    "id": "Vine Heal Used"
  },
  "Volcanic Golem's uberheal": {
    "const": "VolcanicUberHEAL",
    "flags": [],
    "id": "Volcanic Golem's uberheal"
  },
  "Voluntary Demonpack": {
    "const": "VoluntaryDemonpack",
    "flags": [],
    "id": "Voluntary Demonpack"
  },
  "Weapon damage temporarily reduced": {
    "const": "VolcanicWeapRed",
    "flags": [],
    "id": "Weapon damage temporarily reduced"
  },
  "Web": {
    "const": "Web",
    "flags": [],
    "id": "Web"
  },
  "Web-Silence": {
    "const": "WebSilence",
    "flags": [],
    "id": "Web-Silence"
  },
  "Whip Ready": {
    "const": "WhipReady",
    "flags": [],
    "id": "Whip Ready"
  },
  "Whip-Silence": {
    "const": "WhipSilence",
    "flags": [],
    "id": "Whip-Silence"
  },
  "Whispered": {
    "const": "TrueWhispered",
    "flags": [],
    "id": "Whispered"
  },
  "WitheringDebuff": {
    "const": "Withering",
    "flags": [],
    "id": "WitheringDebuff"
  },
  "WormOffer": {
    "const": "WormOffer",
    "flags": [],
    "id": "WormOffer"
  },
  "Yamata Entwine": {
    "const": "YamataEntwine",
    "flags": [],
    "id": "Yamata Entwine"
  },
  "Yamata Foxfire Cannon": {
    "const": "YamataCannon",
    "flags": [],
    "id": "Yamata Foxfire Cannon"
  },
  "Yara": {
    "const": "Yara",
    "flags": [],
    "id": "Yara"
  },
  "all-natural onahole used": {
    "const": "AllNaturalOnaholeUsed",
    "flags": [],
    "id": "all-natural onahole used"
  },
  "ateEgg": {
    "const": "AteEgg",
    "flags": [],
    "id": "ateEgg"
  },
  "attacks": {
    "const": "Attacks",
    "flags": [],
    "id": "attacks"
  },
  "bimboBrawl": {
    "const": "BimboBrawl",
    "flags": [],
    "id": "bimboBrawl"
  },
  "charge attack": {
    "const": "ChargeAttack",
    "flags": [],
    "id": "charge attack"
  },
  "deluxe onahole used": {
    "const": "DeluxeOnaholeUsed",
    "flags": [],
    "id": "deluxe onahole used"
  },
  "dog warning": {
    "const": "DogWarning",
    "flags": [],
    "id": "dog warning"
  },
  "domfight": {
    "const": "DomFight",
    "flags": [],
    "id": "domfight"
  },
  "drank mino cum": {
    "const": "DrankMinoCum",
    "flags": [],
    "id": "drank mino cum"
  },
  "drank mino cum2": {
    "const": "DrankMinoCum2",
    "flags": [],
    "id": "drank mino cum2"
  },
  "dysfunction": {
    "const": "Dysfunction",
    "flags": [],
    "id": "dysfunction"
  },
  "eggchest": {
    "const": "Eggchest",
    "flags": [],
    "id": "eggchest"
  },
  "eggs": {
    "const": "Eggs",
    "flags": [],
    "id": "eggs"
  },
  "ember fuck cooldown": {
    "const": "EmberFuckCooldown",
    "flags": [],
    "id": "ember fuck cooldown"
  },
  "exploredDeepwoods": {
    "const": "ExploredDeepwoods",
    "flags": [],
    "id": "exploredDeepwoods"
  },
  "fapped genderless": {
    "const": "FappedGenderless",
    "flags": [],
    "id": "fapped genderless"
  },
  "fetishON": {
    "const": "FetishOn",
    "flags": [],
    "id": "fetishON"
  },
  "gooStuffed": {
    "const": "GooStuffed",
    "flags": [],
    "id": "gooStuffed"
  },
  "grouchy": {
    "const": "grouchy",
    "flags": [],
    "id": "grouchy"
  },
  "hairdresser meeting": {
    "const": "HairdresserMeeting",
    "flags": [],
    "id": "hairdresser meeting"
  },
  "happy": {
    "const": "happy",
    "flags": [],
    "id": "happy"
  },
  "heat": {
    "const": "Heat",
    "flags": [],
    "id": "heat"
  },
  "horny": {
    "const": "horny",
    "flags": [],
    "id": "horny"
  },
  "horse warning": {
    "const": "HorseWarning",
    "flags": [],
    "id": "horse warning"
  },
  "infected by eel parasite": {
    "const": "ParasiteEel",
    "flags": [],
    "id": "infected by eel parasite"
  },
  "infected by nephila parasite": {
    "const": "ParasiteNephila",
    "flags": [],
    "id": "infected by nephila parasite"
  },
  "infected by slug parasite": {
    "const": "ParasiteSlug",
    "flags": [],
    "id": "infected by slug parasite"
  },
  "infestAttempted": {
    "const": "InfestAttempted",
    "flags": [],
    "id": "infestAttempted"
  },
  "infested": {
    "const": "Infested",
    "flags": [],
    "id": "infested"
  },
  "keen": {
    "const": "Keen",
    "flags": [],
    "id": "keen"
  },
  "level": {
    "const": "Level",
    "flags": [],
    "id": "level"
  },
  "lootEgg": {
    "const": "LootEgg",
    "flags": [],
    "id": "lootEgg"
  },
  "lostVillagerSpecial": {
    "const": "LostVillagerSpecial",
    "flags": [],
    "id": "lostVillagerSpecial"
  },
  "lust stones": {
    "const": "LustStones",
    "flags": [],
    "id": "lust stones"
  },
  "lust venom": {
    "const": "lustvenom",
    "flags": [
      "monster-dispellable"
    ],
    "id": "lust venom"
  },
  "meet wanderer": {
    "const": "MeetWanderer",
    "flags": [],
    "id": "meet wanderer"
  },
  "met a parasite in the bog": {
    "const": "ParasiteSlugMet",
    "flags": [],
    "id": "met a parasite in the bog"
  },
  "metRathazul": {
    "const": "MetRathazul",
    "flags": [],
    "id": "metRathazul"
  },
  "metWorms": {
    "const": "MetWorms",
    "flags": [],
    "id": "metWorms"
  },
  "milk": {
    "const": "Milk",
    "flags": [],
    "id": "milk"
  },
  "miss first round": {
    "const": "MissFirstRound",
    "flags": [],
    "id": "miss first round"
  },
  "noJojo": {
    "const": "NoJojo",
    "flags": [],
    "id": "noJojo"
  },
  "paralyze venom": {
    "const": "ParalyzeVenom",
    "flags": [],
    "id": "paralyze venom"
  },
  "phyllafight": {
    "const": "phyllafight",
    "flags": [],
    "id": "phyllafight"
  },
  "plain onahole used": {
    "const": "PlainOnaholeUsed",
    "flags": [],
    "id": "plain onahole used"
  },
  "platoon": {
    "const": "Platoon",
    "flags": [],
    "id": "platoon"
  },
  "repeatSuccubi": {
    "const": "RepeatSuccubi",
    "flags": [],
    "id": "repeatSuccubi"
  },
  "round": {
    "const": "round",
    "flags": [],
    "id": "round"
  },
  "rut": {
    "const": "Rut",
    "flags": [],
    "id": "rut"
  },
  "sandstorm": {
    "const": "Sandstorm",
    "flags": [],
    "id": "sandstorm"
  },
  "sets a delay before parasite can reproduce after maturing": {
    "const": "ParasiteSlugMatureDay",
    "flags": [],
    "id": "sets a delay before parasite can reproduce after maturing"
  },
  "slug parasite reproducing": {
    "const": "ParasiteSlugReproduction",
    "flags": [],
    "id": "slug parasite reproducing"
  },
  "spar": {
    "const": "Spar",
    "flags": [],
    "id": "spar"
  },
  "sparring": {
    "const": "Sparring",
    "flags": [],
    "id": "sparring"
  },
  "spiderfight": {
    "const": "spiderfight",
    "flags": [],
    "id": "spiderfight"
  },
  "succubiNight": {
    "const": "SuccubiNight",
    "flags": [],
    "id": "succubiNight"
  },
  "used natural self-stim": {
    "const": "UsedNaturalSelfStim",
    "flags": [],
    "id": "used natural self-stim"
  },
  "used self-stim": {
    "const": "used_self_dash_stim",
    "flags": [],
    "id": "used self-stim"
  },
  "vala": {
    "const": "Vala",
    "flags": [],
    "id": "vala"
  },
  "wanderer demon": {
    "const": "WandererDemon",
    "flags": [],
    "id": "wanderer demon"
  },
  "wanderer human": {
    "const": "WandererHuman",
    "flags": [],
    "id": "wanderer human"
  },
  "whispered": {
    "const": "Whispered",
    "flags": [],
    "id": "whispered"
  },
  "worm plugged": {
    "const": "WormPlugged",
    "flags": [],
    "id": "worm plugged"
  }
}